<?xml version="1.0" encoding="UTF-8"?>
<model ref="r:b687d181-64cf-4c03-8191-42a877a6ded1(NewLanguage.dataFlow)">
  <persistence version="9" />
  <languages>
    <use id="7fa12e9c-b949-4976-b4fa-19accbc320b4" name="jetbrains.mps.lang.dataFlow" version="0" />
    <devkit ref="2677cb18-f558-4e33-bc38-a5139cee06dc(jetbrains.mps.devkit.language-design)" />
  </languages>
  <imports>
    <import index="8ezu" ref="r:93c6569a-4020-448e-914e-5eb8bc7a3d46(NewLanguage.structure)" implicit="true" />
  </imports>
  <registry>
    <language id="f3061a53-9226-4cc5-a443-f952ceaf5816" name="jetbrains.mps.baseLanguage">
      <concept id="1153422305557" name="jetbrains.mps.baseLanguage.structure.LessThanOrEqualsExpression" flags="nn" index="2dkUwp" />
      <concept id="1239714755177" name="jetbrains.mps.baseLanguage.structure.AbstractUnaryNumberOperation" flags="nn" index="2$Kvd9">
        <child id="1239714902950" name="expression" index="2$L3a6" />
      </concept>
      <concept id="1197027756228" name="jetbrains.mps.baseLanguage.structure.DotExpression" flags="nn" index="2OqwBi">
        <child id="1197027771414" name="operand" index="2Oq$k0" />
        <child id="1197027833540" name="operation" index="2OqNvi" />
      </concept>
      <concept id="1137021947720" name="jetbrains.mps.baseLanguage.structure.ConceptFunction" flags="in" index="2VMwT0">
        <child id="1137022507850" name="body" index="2VODD2" />
      </concept>
      <concept id="1068580123155" name="jetbrains.mps.baseLanguage.structure.ExpressionStatement" flags="nn" index="3clFbF">
        <child id="1068580123156" name="expression" index="3clFbG" />
      </concept>
      <concept id="1068580123159" name="jetbrains.mps.baseLanguage.structure.IfStatement" flags="nn" index="3clFbJ">
        <child id="1068580123160" name="condition" index="3clFbw" />
        <child id="1068580123161" name="ifTrue" index="3clFbx" />
      </concept>
      <concept id="1068580123136" name="jetbrains.mps.baseLanguage.structure.StatementList" flags="sn" stub="5293379017992965193" index="3clFbS">
        <child id="1068581517665" name="statement" index="3cqZAp" />
      </concept>
      <concept id="1081773326031" name="jetbrains.mps.baseLanguage.structure.BinaryOperation" flags="nn" index="3uHJSO">
        <child id="1081773367579" name="rightExpression" index="3uHU7w" />
        <child id="1081773367580" name="leftExpression" index="3uHU7B" />
      </concept>
      <concept id="1214918800624" name="jetbrains.mps.baseLanguage.structure.PostfixIncrementExpression" flags="nn" index="3uNrnE" />
    </language>
    <language id="7fa12e9c-b949-4976-b4fa-19accbc320b4" name="jetbrains.mps.lang.dataFlow">
      <concept id="1207062474157" name="jetbrains.mps.lang.dataFlow.structure.EmitLabelStatement" flags="ng" index="axUMO" />
      <concept id="1207062697254" name="jetbrains.mps.lang.dataFlow.structure.LabelPosition" flags="ng" index="ayLgZ">
        <reference id="1207062703832" name="label" index="ayMZ1" />
      </concept>
      <concept id="1206442055221" name="jetbrains.mps.lang.dataFlow.structure.DataFlowBuilderDeclaration" flags="ig" index="3_zdsH">
        <reference id="1206442096288" name="conceptDeclaration" index="3_znuS" />
        <child id="1206442812839" name="builderBlock" index="3_A6iZ" />
      </concept>
      <concept id="1206442659665" name="jetbrains.mps.lang.dataFlow.structure.BuilderBlock" flags="in" index="3__wT9" />
      <concept id="1206442747519" name="jetbrains.mps.lang.dataFlow.structure.NodeParameter" flags="nn" index="3__QtB" />
      <concept id="1206445181593" name="jetbrains.mps.lang.dataFlow.structure.BaseEmitJumpStatement" flags="nn" index="3_J8I1">
        <child id="1206445193860" name="jumpTo" index="3_JbIs" />
      </concept>
      <concept id="1206445295557" name="jetbrains.mps.lang.dataFlow.structure.EmitIfJumpStatement" flags="nn" index="3_J$rt" />
      <concept id="1206445310309" name="jetbrains.mps.lang.dataFlow.structure.EmitJumpStatement" flags="nn" index="3_JC1X" />
      <concept id="1206454052847" name="jetbrains.mps.lang.dataFlow.structure.EmitCodeForStatement" flags="nn" index="3AgYrR">
        <child id="1206454079161" name="codeFor" index="3Ah4Yx" />
      </concept>
    </language>
    <language id="7866978e-a0f0-4cc7-81bc-4d213d9375e1" name="jetbrains.mps.lang.smodel">
      <concept id="1138056022639" name="jetbrains.mps.lang.smodel.structure.SPropertyAccess" flags="nn" index="3TrcHB">
        <reference id="1138056395725" name="property" index="3TsBF5" />
      </concept>
      <concept id="1138056143562" name="jetbrains.mps.lang.smodel.structure.SLinkAccess" flags="nn" index="3TrEf2">
        <reference id="1138056516764" name="link" index="3Tt5mk" />
      </concept>
      <concept id="1138056282393" name="jetbrains.mps.lang.smodel.structure.SLinkListAccess" flags="nn" index="3Tsc0h">
        <reference id="1138056546658" name="link" index="3TtcxE" />
      </concept>
    </language>
    <language id="ceab5195-25ea-4f22-9b92-103b95ca8c0c" name="jetbrains.mps.lang.core">
      <concept id="1169194658468" name="jetbrains.mps.lang.core.structure.INamedConcept" flags="ng" index="TrEIO">
        <property id="1169194664001" name="name" index="TrG5h" />
      </concept>
    </language>
  </registry>
  <node concept="3_zdsH" id="5NYde3XdMDx">
    <ref role="3_znuS" to="8ezu:RHuA0XBHmN" resolve="Iterate" />
    <node concept="3__wT9" id="5NYde3XdMDy" role="3_A6iZ">
      <node concept="3clFbS" id="5NYde3XdMDz" role="2VODD2">
        <node concept="3clFbJ" id="5NYde3XdMFz" role="3cqZAp">
          <node concept="2dkUwp" id="5NYde3XdQoX" role="3clFbw">
            <node concept="2OqwBi" id="5NYde3Xe81i" role="3uHU7B">
              <node concept="2OqwBi" id="5NYde3XdMRJ" role="2Oq$k0">
                <node concept="3__QtB" id="5NYde3XdMFY" role="2Oq$k0" />
                <node concept="3TrEf2" id="5NYde3Xe3Y$" role="2OqNvi">
                  <ref role="3Tt5mk" to="8ezu:RHuA0XBJBI" resolve="val" />
                </node>
              </node>
              <node concept="3TrcHB" id="5NYde3Xe8i7" role="2OqNvi">
                <ref role="3TsBF5" to="8ezu:RHuA0XBJBG" resolve="value" />
              </node>
            </node>
            <node concept="2OqwBi" id="5NYde3XdQ33" role="3uHU7w">
              <node concept="2OqwBi" id="5NYde3XdOqR" role="2Oq$k0">
                <node concept="3__QtB" id="5NYde3XdObB" role="2Oq$k0" />
                <node concept="3TrEf2" id="5NYde3XdOVI" role="2OqNvi">
                  <ref role="3Tt5mk" to="8ezu:RHuA0XBNJ_" resolve="val_to" />
                </node>
              </node>
              <node concept="3TrEf2" id="5NYde3XdQiq" role="2OqNvi">
                <ref role="3Tt5mk" to="8ezu:RHuA0XCkI8" resolve="expression" />
              </node>
            </node>
          </node>
          <node concept="3clFbS" id="5NYde3XdMF_" role="3clFbx">
            <node concept="3_JC1X" id="5NYde3XdQvR" role="3cqZAp">
              <node concept="ayLgZ" id="5NYde3XdThN" role="3_JbIs">
                <ref role="ayMZ1" node="5NYde3XdT81" resolve="endLoop" />
              </node>
            </node>
          </node>
        </node>
        <node concept="axUMO" id="5NYde3XdQBM" role="3cqZAp">
          <property role="TrG5h" value="startLoop" />
        </node>
        <node concept="3AgYrR" id="5NYde3XdQPM" role="3cqZAp">
          <node concept="2OqwBi" id="5NYde3XdR6u" role="3Ah4Yx">
            <node concept="3__QtB" id="5NYde3XdQWE" role="2Oq$k0" />
            <node concept="3Tsc0h" id="5NYde3XdRSG" role="2OqNvi">
              <ref role="3TtcxE" to="8ezu:5NYde3XddE3" resolve="statement" />
            </node>
          </node>
        </node>
        <node concept="3clFbF" id="5NYde3Xe5St" role="3cqZAp">
          <node concept="3uNrnE" id="5NYde3Xe6_G" role="3clFbG">
            <node concept="2OqwBi" id="5NYde3Xe8ZD" role="2$L3a6">
              <node concept="2OqwBi" id="5NYde3Xe6_I" role="2Oq$k0">
                <node concept="3__QtB" id="5NYde3Xe6_J" role="2Oq$k0" />
                <node concept="3TrEf2" id="5NYde3Xe6_K" role="2OqNvi">
                  <ref role="3Tt5mk" to="8ezu:RHuA0XBJBI" resolve="val" />
                </node>
              </node>
              <node concept="3TrcHB" id="5NYde3Xe9qT" role="2OqNvi">
                <ref role="3TsBF5" to="8ezu:RHuA0XBJBG" resolve="value" />
              </node>
            </node>
          </node>
        </node>
        <node concept="3_J$rt" id="5NYde3XdSP4" role="3cqZAp">
          <node concept="ayLgZ" id="5NYde3XdSYj" role="3_JbIs">
            <ref role="ayMZ1" node="5NYde3XdQBM" resolve="startLoop" />
          </node>
        </node>
        <node concept="axUMO" id="5NYde3XdT81" role="3cqZAp">
          <property role="TrG5h" value="endLoop" />
        </node>
      </node>
    </node>
  </node>
</model>

